<svg xmlns="http://www.w3.org/2000/svg" width="15.376" height="18.057" viewBox="0 0 15.376 18.057">
  <path id="information" d="M52.671,0H38.705A.705.705,0,0,0,38,.705V14.671a.705.705,0,0,0,.705.705h4.01l2.474,2.474a.705.705,0,0,0,1,0l2.474-2.474h4.01a.705.705,0,0,0,.705-.705V.705A.705.705,0,0,0,52.671,0Zm-.705,13.966h-3.6a.705.705,0,0,0-.5.207l-2.182,2.182-2.182-2.182a.705.705,0,0,0-.5-.207h-3.6V1.411H51.966ZM46.383,7.029v3.394c0,.214-.312.428-.695.428-.4,0-.686-.214-.686-.428V7.029c0-.249.285-.419.686-.419C46.071,6.61,46.383,6.779,46.383,7.029Zm-1.425-1.88a.733.733,0,0,1,1.452,0,.732.732,0,0,1-1.452,0Z" transform="translate(-38)" fill="#4b4b4b"/>
</svg>
