<svg xmlns="http://www.w3.org/2000/svg" width="16.84" height="14.442" viewBox="0 0 16.84 14.442">
  <g id="arrow" transform="translate(16.839 46.283) rotate(180)">
    <g id="Group_117" data-name="Group 117" transform="translate(0 31.842)">
      <path id="Path_322" data-name="Path 322" d="M15.827,37.881a1.2,1.2,0,0,0-.208-.015H3.739L4,37.745a2.41,2.41,0,0,0,.681-.482L8.01,33.931a1.247,1.247,0,0,0,.175-1.6,1.2,1.2,0,0,0-1.807-.157L.353,38.2a1.2,1.2,0,0,0,0,1.7h0l6.024,6.024a1.2,1.2,0,0,0,1.807-.12,1.247,1.247,0,0,0-.175-1.6L4.685,40.877a2.41,2.41,0,0,0-.6-.44l-.361-.163H15.552a1.247,1.247,0,0,0,1.271-1.012A1.2,1.2,0,0,0,15.827,37.881Z" transform="translate(0 -31.842)" fill="#0872bb"/>
    </g>
  </g>
</svg>
