<svg xmlns="http://www.w3.org/2000/svg" width="8.787" height="5.162" viewBox="0 0 8.787 5.162">
  <g id="Group_89" data-name="Group 89" transform="translate(8.787) rotate(90)">
    <path id="Path_227" data-name="Path 227" d="M106.5,4.051,102.59.14a.482.482,0,0,0-.68,0l-.288.288a.481.481,0,0,0,0,.68l3.284,3.284-3.287,3.287a.482.482,0,0,0,0,.68l.288.288a.482.482,0,0,0,.68,0L106.5,4.733a.485.485,0,0,0,0-.682Z" transform="translate(-101.478)" fill="#4b4b4b"/>
  </g>
</svg>
