<svg xmlns="http://www.w3.org/2000/svg" width="14.482" height="9.488" viewBox="0 0 14.482 9.488">
  <g id="Group_95" data-name="Group 95" transform="translate(-120.516 -1291)">
    <path id="Path_272" data-name="Path 272" d="M14.232,97.764H.25a.25.25,0,0,1-.25-.25V88.526a.25.25,0,0,1,.25-.25H14.232a.25.25,0,0,1,.25.25v8.989A.25.25,0,0,1,14.232,97.764Z" transform="translate(120.516 1202.724)" fill="#f5f5f5"/>
    <g id="Group_91" data-name="Group 91" transform="translate(120.516 1291)">
      <path id="Path_273" data-name="Path 273" d="M14.482,89.006H0v-.48a.25.25,0,0,1,.25-.25H14.232a.25.25,0,0,1,.25.25v.48Z" transform="translate(0 -88.276)" fill="#ff4b55"/>
      <rect id="Rectangle_687" data-name="Rectangle 687" width="14.482" height="0.73" transform="translate(0 2.919)" fill="#ff4b55"/>
      <rect id="Rectangle_688" data-name="Rectangle 688" width="14.482" height="0.73" transform="translate(0 1.46)" fill="#ff4b55"/>
      <path id="Path_274" data-name="Path 274" d="M14.482,243.828H.25a.25.25,0,0,1-.25-.25v-.48H14.482Z" transform="translate(0 -238.719)" fill="#ff4b55"/>
      <rect id="Rectangle_689" data-name="Rectangle 689" width="14.482" height="0.73" transform="translate(0 7.299)" fill="#ff4b55"/>
      <path id="Path_275" data-name="Path 275" d="M14.232,398.651H.25A.25.25,0,0,1,0,398.4v-.48H14.482v.48A.25.25,0,0,1,14.232,398.651Z" transform="translate(0 -389.163)" fill="#ff4b55"/>
      <rect id="Rectangle_690" data-name="Rectangle 690" width="14.482" height="0.73" transform="translate(0 5.839)" fill="#ff4b55"/>
    </g>
    <path id="Path_276" data-name="Path 276" d="M6.492,88.277H.25a.25.25,0,0,0-.25.25v4.61a.25.25,0,0,0,.25.25H6.492a.25.25,0,0,0,.25-.25v-4.61A.25.25,0,0,0,6.492,88.277Z" transform="translate(120.516 1202.723)" fill="#41479b"/>
    <g id="Group_92" data-name="Group 92" transform="translate(120.919 1291.557)">
      <path id="Path_277" data-name="Path 277" d="M14.551,107.985l.055.166h.175a.024.024,0,0,1,.014.042l-.141.1.053.167a.024.024,0,0,1-.036.026l-.142-.1-.142.1a.024.024,0,0,1-.036-.026l.053-.167-.141-.1a.024.024,0,0,1,.014-.042h.175l.055-.166A.024.024,0,0,1,14.551,107.985Z" transform="translate(-14.253 -107.969)" fill="#f5f5f5"/>
      <path id="Path_278" data-name="Path 278" d="M14.551,138.64l.055.166h.175a.024.024,0,0,1,.014.042l-.141.1.053.167a.024.024,0,0,1-.036.026l-.142-.1-.142.1a.024.024,0,0,1-.036-.026l.053-.167-.141-.1a.024.024,0,0,1,.014-.042h.175l.055-.166A.024.024,0,0,1,14.551,138.64Z" transform="translate(-14.253 -137.757)" fill="#f5f5f5"/>
      <path id="Path_279" data-name="Path 279" d="M14.551,169.294l.055.166h.175a.024.024,0,0,1,.014.042l-.141.1.053.167a.024.024,0,0,1-.036.026l-.142-.1-.142.1a.024.024,0,0,1-.036-.026l.053-.167-.141-.1a.024.024,0,0,1,.014-.042h.175l.055-.166A.024.024,0,0,1,14.551,169.294Z" transform="translate(-14.253 -167.544)" fill="#f5f5f5"/>
      <path id="Path_280" data-name="Path 280" d="M14.551,199.948l.055.166h.175a.024.024,0,0,1,.014.042l-.141.1.053.167a.024.024,0,0,1-.036.026l-.142-.1-.142.1a.024.024,0,0,1-.036-.026l.053-.167-.141-.1a.024.024,0,0,1,.014-.042h.175l.055-.166A.024.024,0,0,1,14.551,199.948Z" transform="translate(-14.253 -197.331)" fill="#f5f5f5"/>
      <path id="Path_281" data-name="Path 281" d="M14.551,230.6l.055.166h.175a.024.024,0,0,1,.014.042l-.141.1.053.167a.024.024,0,0,1-.036.026l-.142-.1-.142.1a.024.024,0,0,1-.036-.026l.053-.167-.141-.1a.024.024,0,0,1,.014-.042h.175l.055-.166A.024.024,0,0,1,14.551,230.6Z" transform="translate(-14.253 -227.117)" fill="#f5f5f5"/>
      <path id="Path_282" data-name="Path 282" d="M38.344,123.015l.055.166h.175a.024.024,0,0,1,.014.042l-.141.1.053.167a.024.024,0,0,1-.036.026l-.142-.1-.142.1a.024.024,0,0,1-.036-.026l.053-.167-.141-.1a.024.024,0,0,1,.014-.042h.175l.055-.166A.024.024,0,0,1,38.344,123.015Z" transform="translate(-37.373 -122.573)" fill="#f5f5f5"/>
      <path id="Path_283" data-name="Path 283" d="M38.344,153.669l.055.166h.175a.024.024,0,0,1,.014.042l-.141.1.053.167a.024.024,0,0,1-.036.026l-.142-.1-.142.1a.024.024,0,0,1-.036-.026l.053-.167-.141-.1a.024.024,0,0,1,.014-.042h.175l.055-.166A.024.024,0,0,1,38.344,153.669Z" transform="translate(-37.373 -152.361)" fill="#f5f5f5"/>
      <path id="Path_284" data-name="Path 284" d="M38.344,184.323l.055.166h.175a.024.024,0,0,1,.014.042l-.141.1.053.167a.024.024,0,0,1-.036.026l-.142-.1-.142.1a.024.024,0,0,1-.036-.026l.053-.167-.141-.1a.024.024,0,0,1,.014-.042h.175l.055-.166A.024.024,0,0,1,38.344,184.323Z" transform="translate(-37.373 -182.148)" fill="#f5f5f5"/>
      <path id="Path_285" data-name="Path 285" d="M38.344,214.978l.055.166h.175a.024.024,0,0,1,.014.042l-.141.1.053.167a.024.024,0,0,1-.036.026l-.142-.1-.142.1a.024.024,0,0,1-.036-.026l.053-.167-.141-.1a.024.024,0,0,1,.014-.042h.175l.055-.166A.024.024,0,0,1,38.344,214.978Z" transform="translate(-37.373 -211.935)" fill="#f5f5f5"/>
      <path id="Path_286" data-name="Path 286" d="M62.137,107.985l.055.166h.175a.024.024,0,0,1,.014.042l-.141.1.053.167a.024.024,0,0,1-.036.026l-.142-.1-.142.1a.024.024,0,0,1-.036-.026l.053-.167-.141-.1a.024.024,0,0,1,.014-.042h.175l.055-.166A.024.024,0,0,1,62.137,107.985Z" transform="translate(-60.493 -107.969)" fill="#f5f5f5"/>
      <path id="Path_287" data-name="Path 287" d="M62.137,138.64l.055.166h.175a.024.024,0,0,1,.014.042l-.141.1.053.167a.024.024,0,0,1-.036.026l-.142-.1-.142.1a.024.024,0,0,1-.036-.026l.053-.167-.141-.1a.024.024,0,0,1,.014-.042h.175l.055-.166A.024.024,0,0,1,62.137,138.64Z" transform="translate(-60.493 -137.756)" fill="#f5f5f5"/>
      <path id="Path_288" data-name="Path 288" d="M62.137,169.294l.055.166h.175a.024.024,0,0,1,.014.042l-.141.1.053.167a.024.024,0,0,1-.036.026l-.142-.1-.142.1a.024.024,0,0,1-.036-.026l.053-.167-.141-.1a.024.024,0,0,1,.014-.042h.175l.055-.166A.024.024,0,0,1,62.137,169.294Z" transform="translate(-60.493 -167.543)" fill="#f5f5f5"/>
      <path id="Path_289" data-name="Path 289" d="M62.137,199.948l.055.166h.175a.024.024,0,0,1,.014.042l-.141.1.053.167a.024.024,0,0,1-.036.026l-.142-.1-.142.1a.024.024,0,0,1-.036-.026l.053-.167-.141-.1a.024.024,0,0,1,.014-.042h.175l.055-.166A.024.024,0,0,1,62.137,199.948Z" transform="translate(-60.493 -197.331)" fill="#f5f5f5"/>
      <path id="Path_290" data-name="Path 290" d="M62.137,230.6l.055.166h.175a.024.024,0,0,1,.014.042l-.141.1.053.167a.024.024,0,0,1-.036.026l-.142-.1-.142.1a.024.024,0,0,1-.036-.026l.053-.167-.141-.1a.024.024,0,0,1,.014-.042h.175l.055-.166A.024.024,0,0,1,62.137,230.6Z" transform="translate(-60.493 -227.117)" fill="#f5f5f5"/>
      <path id="Path_291" data-name="Path 291" d="M85.931,123.015l.055.166h.175a.024.024,0,0,1,.014.042l-.141.1.053.167a.024.024,0,0,1-.036.026l-.142-.1-.142.1a.024.024,0,0,1-.036-.026l.053-.167-.141-.1a.024.024,0,0,1,.014-.042h.175l.055-.166A.024.024,0,0,1,85.931,123.015Z" transform="translate(-83.614 -122.573)" fill="#f5f5f5"/>
      <path id="Path_292" data-name="Path 292" d="M85.931,153.669l.055.166h.175a.024.024,0,0,1,.014.042l-.141.1.053.167a.024.024,0,0,1-.036.026l-.142-.1-.142.1a.024.024,0,0,1-.036-.026l.053-.167-.141-.1a.024.024,0,0,1,.014-.042h.175l.055-.166A.024.024,0,0,1,85.931,153.669Z" transform="translate(-83.614 -152.361)" fill="#f5f5f5"/>
      <path id="Path_293" data-name="Path 293" d="M85.931,184.323l.055.166h.175a.024.024,0,0,1,.014.042l-.141.1.053.167a.024.024,0,0,1-.036.026l-.142-.1-.142.1a.024.024,0,0,1-.036-.026l.053-.167-.141-.1a.024.024,0,0,1,.014-.042h.175l.055-.166A.024.024,0,0,1,85.931,184.323Z" transform="translate(-83.614 -182.148)" fill="#f5f5f5"/>
      <path id="Path_294" data-name="Path 294" d="M85.931,214.978l.055.166h.175a.024.024,0,0,1,.014.042l-.141.1.053.167a.024.024,0,0,1-.036.026l-.142-.1-.142.1a.024.024,0,0,1-.036-.026l.053-.167-.141-.1a.024.024,0,0,1,.014-.042h.175l.055-.166A.024.024,0,0,1,85.931,214.978Z" transform="translate(-83.614 -211.935)" fill="#f5f5f5"/>
      <path id="Path_295" data-name="Path 295" d="M109.723,107.985l.055.166h.175a.024.024,0,0,1,.014.042l-.141.1.053.167a.024.024,0,0,1-.036.026l-.142-.1-.142.1a.024.024,0,0,1-.036-.026l.053-.167-.141-.1a.024.024,0,0,1,.014-.042h.175l.055-.166A.024.024,0,0,1,109.723,107.985Z" transform="translate(-106.733 -107.969)" fill="#f5f5f5"/>
      <path id="Path_296" data-name="Path 296" d="M109.723,138.64l.055.166h.175a.024.024,0,0,1,.014.042l-.141.1.053.167a.024.024,0,0,1-.036.026l-.142-.1-.142.1a.024.024,0,0,1-.036-.026l.053-.167-.141-.1a.024.024,0,0,1,.014-.042h.175l.055-.166A.024.024,0,0,1,109.723,138.64Z" transform="translate(-106.733 -137.756)" fill="#f5f5f5"/>
      <path id="Path_297" data-name="Path 297" d="M109.723,169.294l.055.166h.175a.024.024,0,0,1,.014.042l-.141.1.053.167a.024.024,0,0,1-.036.026l-.142-.1-.142.1a.024.024,0,0,1-.036-.026l.053-.167-.141-.1a.024.024,0,0,1,.014-.042h.175l.055-.166A.024.024,0,0,1,109.723,169.294Z" transform="translate(-106.733 -167.543)" fill="#f5f5f5"/>
      <path id="Path_298" data-name="Path 298" d="M109.723,199.948l.055.166h.175a.024.024,0,0,1,.014.042l-.141.1.053.167a.024.024,0,0,1-.036.026l-.142-.1-.142.1a.024.024,0,0,1-.036-.026l.053-.167-.141-.1a.024.024,0,0,1,.014-.042h.175l.055-.166A.024.024,0,0,1,109.723,199.948Z" transform="translate(-106.733 -197.331)" fill="#f5f5f5"/>
      <path id="Path_299" data-name="Path 299" d="M109.723,230.6l.055.166h.175a.024.024,0,0,1,.014.042l-.141.1.053.167a.024.024,0,0,1-.036.026l-.142-.1-.142.1a.024.024,0,0,1-.036-.026l.053-.167-.141-.1a.024.024,0,0,1,.014-.042h.175l.055-.166A.024.024,0,0,1,109.723,230.6Z" transform="translate(-106.733 -227.117)" fill="#f5f5f5"/>
      <path id="Path_300" data-name="Path 300" d="M133.517,123.015l.055.166h.175a.024.024,0,0,1,.014.042l-.141.1.053.167a.024.024,0,0,1-.036.026l-.142-.1-.142.1a.024.024,0,0,1-.036-.026l.053-.167-.141-.1a.024.024,0,0,1,.014-.042h.175l.055-.166A.024.024,0,0,1,133.517,123.015Z" transform="translate(-129.854 -122.573)" fill="#f5f5f5"/>
      <path id="Path_301" data-name="Path 301" d="M133.517,153.669l.055.166h.175a.024.024,0,0,1,.014.042l-.141.1.053.167a.024.024,0,0,1-.036.026l-.142-.1-.142.1a.024.024,0,0,1-.036-.026l.053-.167-.141-.1a.024.024,0,0,1,.014-.042h.175l.055-.166A.024.024,0,0,1,133.517,153.669Z" transform="translate(-129.854 -152.361)" fill="#f5f5f5"/>
      <path id="Path_302" data-name="Path 302" d="M133.517,184.323l.055.166h.175a.024.024,0,0,1,.014.042l-.141.1.053.167a.024.024,0,0,1-.036.026l-.142-.1-.142.1a.024.024,0,0,1-.036-.026l.053-.167-.141-.1a.024.024,0,0,1,.014-.042h.175l.055-.166A.024.024,0,0,1,133.517,184.323Z" transform="translate(-129.854 -182.148)" fill="#f5f5f5"/>
      <path id="Path_303" data-name="Path 303" d="M133.517,214.978l.055.166h.175a.024.024,0,0,1,.014.042l-.141.1.053.167a.024.024,0,0,1-.036.026l-.142-.1-.142.1a.024.024,0,0,1-.036-.026l.053-.167-.141-.1a.024.024,0,0,1,.014-.042h.175l.055-.166A.024.024,0,0,1,133.517,214.978Z" transform="translate(-129.854 -211.935)" fill="#f5f5f5"/>
      <path id="Path_304" data-name="Path 304" d="M157.311,107.985l.055.166h.175a.024.024,0,0,1,.014.042l-.141.1.053.167a.024.024,0,0,1-.036.026l-.142-.1-.142.1a.024.024,0,0,1-.036-.026l.053-.167-.141-.1a.024.024,0,0,1,.014-.042h.175l.055-.166A.024.024,0,0,1,157.311,107.985Z" transform="translate(-152.975 -107.969)" fill="#f5f5f5"/>
      <path id="Path_305" data-name="Path 305" d="M157.311,138.64l.055.166h.175a.024.024,0,0,1,.014.042l-.141.1.053.167a.024.024,0,0,1-.036.026l-.142-.1-.142.1a.024.024,0,0,1-.036-.026l.053-.167-.141-.1a.024.024,0,0,1,.014-.042h.175l.055-.166A.024.024,0,0,1,157.311,138.64Z" transform="translate(-152.975 -137.756)" fill="#f5f5f5"/>
      <path id="Path_306" data-name="Path 306" d="M157.311,169.294l.055.166h.175a.024.024,0,0,1,.014.042l-.141.1.053.167a.024.024,0,0,1-.036.026l-.142-.1-.142.1a.024.024,0,0,1-.036-.026l.053-.167-.141-.1a.024.024,0,0,1,.014-.042h.175l.055-.166A.024.024,0,0,1,157.311,169.294Z" transform="translate(-152.975 -167.543)" fill="#f5f5f5"/>
      <path id="Path_307" data-name="Path 307" d="M157.311,199.948l.055.166h.175a.024.024,0,0,1,.014.042l-.141.1.053.167a.024.024,0,0,1-.036.026l-.142-.1-.142.1a.024.024,0,0,1-.036-.026l.053-.167-.141-.1a.024.024,0,0,1,.014-.042h.175l.055-.166A.024.024,0,0,1,157.311,199.948Z" transform="translate(-152.975 -197.331)" fill="#f5f5f5"/>
      <path id="Path_308" data-name="Path 308" d="M157.311,230.6l.055.166h.175a.024.024,0,0,1,.014.042l-.141.1.053.167a.024.024,0,0,1-.036.026l-.142-.1-.142.1a.024.024,0,0,1-.036-.026l.053-.167-.141-.1a.024.024,0,0,1,.014-.042h.175l.055-.166A.024.024,0,0,1,157.311,230.6Z" transform="translate(-152.975 -227.117)" fill="#f5f5f5"/>
      <path id="Path_309" data-name="Path 309" d="M181.1,123.015l.055.166h.175a.024.024,0,0,1,.014.042l-.141.1.053.167a.024.024,0,0,1-.036.026l-.142-.1-.142.1a.024.024,0,0,1-.036-.026l.053-.167-.141-.1a.024.024,0,0,1,.014-.042H181l.055-.166A.024.024,0,0,1,181.1,123.015Z" transform="translate(-176.095 -122.573)" fill="#f5f5f5"/>
      <path id="Path_310" data-name="Path 310" d="M181.1,153.669l.055.166h.175a.024.024,0,0,1,.014.042l-.141.1.053.167a.024.024,0,0,1-.036.026l-.142-.1-.142.1a.024.024,0,0,1-.036-.026l.053-.167-.141-.1a.024.024,0,0,1,.014-.042H181l.055-.166A.024.024,0,0,1,181.1,153.669Z" transform="translate(-176.095 -152.361)" fill="#f5f5f5"/>
      <path id="Path_311" data-name="Path 311" d="M181.1,184.323l.055.166h.175a.024.024,0,0,1,.014.042l-.141.1.053.167a.024.024,0,0,1-.036.026l-.142-.1-.142.1a.024.024,0,0,1-.036-.026l.053-.167-.141-.1a.024.024,0,0,1,.014-.042H181l.055-.166A.024.024,0,0,1,181.1,184.323Z" transform="translate(-176.095 -182.148)" fill="#f5f5f5"/>
      <path id="Path_312" data-name="Path 312" d="M181.1,214.978l.055.166h.175a.024.024,0,0,1,.014.042l-.141.1.053.167a.024.024,0,0,1-.036.026l-.142-.1-.142.1a.024.024,0,0,1-.036-.026l.053-.167-.141-.1a.024.024,0,0,1,.014-.042H181l.055-.166A.024.024,0,0,1,181.1,214.978Z" transform="translate(-176.095 -211.935)" fill="#f5f5f5"/>
      <path id="Path_313" data-name="Path 313" d="M204.9,107.985l.055.166h.175a.024.024,0,0,1,.014.042l-.141.1.053.167a.024.024,0,0,1-.036.026l-.142-.1-.142.1a.024.024,0,0,1-.036-.026l.053-.167-.141-.1a.024.024,0,0,1,.014-.042h.175l.055-.166A.024.024,0,0,1,204.9,107.985Z" transform="translate(-199.216 -107.969)" fill="#f5f5f5"/>
      <path id="Path_314" data-name="Path 314" d="M204.9,138.64l.055.166h.175a.024.024,0,0,1,.014.042l-.141.1.053.167a.024.024,0,0,1-.036.026l-.142-.1-.142.1a.024.024,0,0,1-.036-.026l.053-.167-.141-.1a.024.024,0,0,1,.014-.042h.175l.055-.166A.024.024,0,0,1,204.9,138.64Z" transform="translate(-199.216 -137.756)" fill="#f5f5f5"/>
      <path id="Path_315" data-name="Path 315" d="M204.9,169.294l.055.166h.175a.024.024,0,0,1,.014.042l-.141.1.053.167a.024.024,0,0,1-.036.026l-.142-.1-.142.1a.024.024,0,0,1-.036-.026l.053-.167-.141-.1a.024.024,0,0,1,.014-.042h.175l.055-.166A.024.024,0,0,1,204.9,169.294Z" transform="translate(-199.216 -167.543)" fill="#f5f5f5"/>
      <path id="Path_316" data-name="Path 316" d="M204.9,199.948l.055.166h.175a.024.024,0,0,1,.014.042l-.141.1.053.167a.024.024,0,0,1-.036.026l-.142-.1-.142.1a.024.024,0,0,1-.036-.026l.053-.167-.141-.1a.024.024,0,0,1,.014-.042h.175l.055-.166A.024.024,0,0,1,204.9,199.948Z" transform="translate(-199.216 -197.331)" fill="#f5f5f5"/>
      <path id="Path_317" data-name="Path 317" d="M204.9,230.6l.055.166h.175a.024.024,0,0,1,.014.042l-.141.1.053.167a.024.024,0,0,1-.036.026l-.142-.1-.142.1a.024.024,0,0,1-.036-.026l.053-.167-.141-.1a.024.024,0,0,1,.014-.042h.175l.055-.166A.024.024,0,0,1,204.9,230.6Z" transform="translate(-199.216 -227.117)" fill="#f5f5f5"/>
    </g>
  </g>
</svg>
