<svg xmlns="http://www.w3.org/2000/svg" width="14.656" height="9.602" viewBox="0 0 14.656 9.602">
  <g id="israel" transform="translate(0 -88.276)">
    <path id="Path_318" data-name="Path 318" d="M14.4,97.878H.253A.253.253,0,0,1,0,97.625v-9.1a.253.253,0,0,1,.253-.253H14.4a.253.253,0,0,1,.253.253v9.1A.253.253,0,0,1,14.4,97.878Z" fill="#41479b"/>
    <rect id="Rectangle_691" data-name="Rectangle 691" width="14.656" height="6.064" transform="translate(0 90.045)" fill="#f5f5f5"/>
    <path id="Path_319" data-name="Path 319" d="M190.481,178.827l.656-1.137h-1.313l-.657-1.137-.657,1.137H187.2l.656,1.137-.656,1.137h1.313l.657,1.137.657-1.137h1.313Zm.012-.765-.227.393-.227-.393Zm-.442.765-.442.765h-.884l-.442-.765.442-.765h.884Zm-.884-1.53.227.393h-.454Zm-1.325.765h.454l-.227.393Zm0,1.53.227-.393.227.393Zm1.325.765-.227-.393h.454Zm1.1-1.159.227.393h-.454Z" transform="translate(-181.84 -85.75)" fill="#41479b"/>
  </g>
</svg>
