<svg xmlns="http://www.w3.org/2000/svg" width="11.388" height="10.913" viewBox="0 0 11.388 10.913">
  <path id="star_8_" data-name="star (8)" d="M11.358,4.616a.6.6,0,0,0-.521-.416L7.55,3.9,6.251.859a.605.605,0,0,0-1.113,0L3.838,3.9.55,4.2A.606.606,0,0,0,.207,5.259L2.691,7.438l-.733,3.227a.6.6,0,0,0,.9.654L5.694,9.625l2.834,1.695a.605.605,0,0,0,.9-.654L8.7,7.438,11.181,5.26A.606.606,0,0,0,11.358,4.616Zm0,0" transform="translate(0 -0.492)" fill="#fff"/>
</svg>
