<svg id="Group" xmlns="http://www.w3.org/2000/svg" width="8.296" height="14.121" viewBox="0 0 8.296 14.121">
  <path id="Path_227" data-name="Path 227" d="M109.549,6.509,103.265.226a.774.774,0,0,0-1.092,0l-.463.463a.773.773,0,0,0,0,1.092l5.277,5.277L101.7,12.34a.774.774,0,0,0,0,1.093l.463.463a.774.774,0,0,0,1.092,0l6.29-6.29a.78.78,0,0,0,0-1.1Z" transform="translate(-101.478)" fill="#4b4b4b"/>
</svg>
