<svg xmlns="http://www.w3.org/2000/svg" width="14.121" height="14.12" viewBox="0 0 14.121 14.12">
  <g id="cancel" transform="translate(0 0)">
    <g id="Group_56" data-name="Group 56" transform="translate(0 0)">
      <path id="Path_229" data-name="Path 229" d="M8.616,7.076,13.9,1.8A.774.774,0,0,0,13.9.7L13.433.241a.774.774,0,0,0-1.092,0L7.061,5.521,1.781.241a.774.774,0,0,0-1.092,0L.226.7a.773.773,0,0,0,0,1.092l5.28,5.28-5.28,5.28a.775.775,0,0,0,0,1.092l.463.463a.774.774,0,0,0,1.092,0l5.28-5.28,5.28,5.28a.766.766,0,0,0,.546.225h0a.766.766,0,0,0,.546-.225l.463-.463a.774.774,0,0,0,0-1.092Z" transform="translate(0 -0.016)" fill="#4b4b4b"/>
    </g>
  </g>
</svg>
