<svg xmlns="http://www.w3.org/2000/svg" width="12.377" height="9.611" viewBox="0 0 12.377 9.611">
  <g id="check_1_" data-name="check (1)" transform="translate(-2.207 -4.206)">
    <path id="Path_321" data-name="Path 321" d="M6.947,13.632a.632.632,0,0,1-.894,0L2.485,10.063a.947.947,0,0,1,0-1.34l.447-.447a.947.947,0,0,1,1.34,0L6.5,10.5l6.02-6.02a.947.947,0,0,1,1.34,0l.447.447a.947.947,0,0,1,0,1.34Z" fill="#0872bb"/>
  </g>
</svg>
