<svg xmlns="http://www.w3.org/2000/svg" width="50" height="92" viewBox="0 0 50 92">
  <g id="Group_148" data-name="Group 148" transform="translate(-505 -841)">
    <g id="Group_144" data-name="Group 144">
      <g id="Rectangle_775" data-name="Rectangle 775" transform="translate(505 841)" fill="#fff" stroke="#686868" stroke-width="1">
        <rect width="50" height="92" rx="6" stroke="none"/>
        <rect x="0.5" y="0.5" width="49" height="91" rx="5.5" fill="none"/>
      </g>
      <circle id="Ellipse_67" data-name="Ellipse 67" cx="2" cy="2" r="2" transform="translate(528 845)" fill="#686868"/>
      <rect id="Rectangle_780" data-name="Rectangle 780" width="11.604" height="11.604" rx="3" transform="translate(509.396 855)" fill="#e3e3e3"/>
      <rect id="Rectangle_785" data-name="Rectangle 785" width="11.604" height="11.604" rx="3" transform="translate(509.396 869)" fill="#e3e3e3"/>
      <rect id="Rectangle_788" data-name="Rectangle 788" width="11.604" height="11.604" rx="3" transform="translate(509.396 883)" fill="#e3e3e3"/>
      <rect id="Rectangle_791" data-name="Rectangle 791" width="11.604" height="11.604" rx="3" transform="translate(509.396 897)" fill="#e3e3e3"/>
      <rect id="Rectangle_794" data-name="Rectangle 794" width="11.604" height="11.604" rx="3" transform="translate(509.396 911)" fill="#e3e3e3"/>
      <path id="Rectangle_797" data-name="Rectangle 797" d="M3,0H8.6a3,3,0,0,1,3,3V7.016a0,0,0,0,1,0,0H1a1,1,0,0,1-1-1V3A3,3,0,0,1,3,0Z" transform="translate(509.396 925)" fill="#e3e3e3"/>
      <rect id="Rectangle_781" data-name="Rectangle 781" width="11.604" height="11.604" rx="3" transform="translate(524.198 855)" fill="#e3e3e3"/>
      <rect id="Rectangle_784" data-name="Rectangle 784" width="11.604" height="11.604" rx="3" transform="translate(524.198 869)" fill="#e3e3e3"/>
      <rect id="Rectangle_787" data-name="Rectangle 787" width="11.604" height="11.604" rx="3" transform="translate(524.198 883)" fill="#e3e3e3"/>
      <rect id="Rectangle_790" data-name="Rectangle 790" width="11.604" height="11.604" rx="3" transform="translate(524.198 897)" fill="#ffe183"/>
      <rect id="Rectangle_793" data-name="Rectangle 793" width="11.604" height="11.604" rx="3" transform="translate(524.198 911)" fill="#e3e3e3"/>
      <path id="Rectangle_796" data-name="Rectangle 796" d="M3,0H8.6a3,3,0,0,1,3,3V7.016a0,0,0,0,1,0,0H0a0,0,0,0,1,0,0V3A3,3,0,0,1,3,0Z" transform="translate(524.198 925)" fill="#e3e3e3"/>
      <rect id="Rectangle_782" data-name="Rectangle 782" width="11.604" height="11.604" rx="3" transform="translate(538.198 855)" fill="#f3be19"/>
      <rect id="Rectangle_783" data-name="Rectangle 783" width="11.604" height="11.604" rx="3" transform="translate(538.198 869)" fill="#e3e3e3"/>
      <rect id="Rectangle_786" data-name="Rectangle 786" width="11.604" height="11.604" rx="3" transform="translate(538.198 883)" fill="#e3e3e3"/>
      <rect id="Rectangle_789" data-name="Rectangle 789" width="11.604" height="11.604" rx="3" transform="translate(538.198 897)" fill="#e3e3e3"/>
      <rect id="Rectangle_792" data-name="Rectangle 792" width="11.604" height="11.604" rx="3" transform="translate(538.198 911)" fill="#e3e3e3"/>
      <path id="Rectangle_795" data-name="Rectangle 795" d="M3,0H8.6a3,3,0,0,1,3,3V7.016a0,0,0,0,1,0,0H0a0,0,0,0,1,0,0V3A3,3,0,0,1,3,0Z" transform="translate(538.198 925)" fill="#e3e3e3"/>
    </g>
  </g>
</svg>
