<svg xmlns="http://www.w3.org/2000/svg" width="21" height="21" viewBox="0 0 21 21">
  <g id="facebook_5_" data-name="facebook (5)" transform="translate(0)">
    <path id="Subtraction_1" data-name="Subtraction 1" d="M2858.5,2064a10.5,10.5,0,1,1,10.5-10.5A10.512,10.512,0,0,1,2858.5,2064Zm-2.073-10.089v6.865h2.839v-6.865h1.874l.249-2.409h-2.121v-1.42a.579.579,0,0,1,.6-.657h1.526v-2.342l-2.1-.009a2.687,2.687,0,0,0-2.307,1.013,3.186,3.186,0,0,0-.557,1.851v1.561h-1.35v2.412Z" transform="translate(-2848 -2043)" fill="#fff"/>
  </g>
</svg>
