<svg xmlns="http://www.w3.org/2000/svg" width="32" height="32" viewBox="0 0 32 32">
  <g id="Group_88" data-name="Group 88" transform="translate(0.366 0.225)">
    <circle id="Ellipse_52" data-name="Ellipse 52" cx="16" cy="16" r="16" transform="translate(-0.366 -0.225)" fill="#f7f7f7"/>
    <path id="close_1_" data-name="close (1)" d="M6.368,5.518l4.191-4.191A.7.7,0,0,0,9.573.34L5.382,4.532,1.191.34A.7.7,0,0,0,.2,1.326L4.4,5.518.2,9.709a.7.7,0,1,0,.986.986L5.382,6.5l4.191,4.191a.7.7,0,0,0,.986-.986Zm0,0" transform="translate(10.834 10.679)" fill="#707070"/>
  </g>
</svg>
