<svg xmlns="http://www.w3.org/2000/svg" width="16.087" height="19" viewBox="0 0 16.087 19">
  <path id="painting-roller" d="M55.371,2.624h-.545V1.354A1.356,1.356,0,0,0,53.471,0H42.786a1.356,1.356,0,0,0-1.354,1.354v3.38a1.356,1.356,0,0,0,1.354,1.354H53.471a1.356,1.356,0,0,0,1.355-1.354V3.327h.545a.444.444,0,0,1,.444.443V7.316a.444.444,0,0,1-.444.443H48.128a.352.352,0,0,0-.352.352V9.97H46.8a.352.352,0,0,0-.352.352V16.9a1.1,1.1,0,0,0,1.1,1.1h1.165a1.1,1.1,0,0,0,1.1-1.1V10.321a.352.352,0,0,0-.352-.352H48.48V8.462h6.891a1.148,1.148,0,0,0,1.147-1.146V3.77a1.148,1.148,0,0,0-1.147-1.146ZM54.122,4.735a.652.652,0,0,1-.651.651H42.786a.652.652,0,0,1-.651-.651V1.354A.652.652,0,0,1,42.786.7H53.471a.652.652,0,0,1,.651.651ZM49.109,16.9a.4.4,0,0,1-.4.4H47.546a.4.4,0,0,1-.4-.4V10.673h1.961Z" transform="translate(-40.931 0.5)" fill="#4b4b4b" stroke="#4b4b4b" stroke-width="1"/>
</svg>
