<svg xmlns="http://www.w3.org/2000/svg" width="12.729" height="13.185" viewBox="0 0 12.729 13.185">
  <path id="search_2_" data-name="search (2)" d="M13.52,12.009,10.382,8.746a5.321,5.321,0,1,0-4.074,1.9,5.266,5.266,0,0,0,3.05-.963l3.162,3.288a.694.694,0,1,0,1-.963ZM6.307,1.389A3.935,3.935,0,1,1,2.373,5.323,3.939,3.939,0,0,1,6.307,1.389Z" transform="translate(-0.984)"/>
</svg>
