<svg xmlns="http://www.w3.org/2000/svg" width="16.55" height="11.284" viewBox="0 0 16.55 11.284">
  <g id="visibility_1_" data-name="visibility (1)" transform="translate(0 -74.667)">
    <g id="Group_94" data-name="Group 94" transform="translate(0 74.667)">
      <g id="Group_93" data-name="Group 93" transform="translate(0 0)">
        <path id="Path_280" data-name="Path 280" d="M172.924,170.667a2.257,2.257,0,1,0,2.257,2.257A2.259,2.259,0,0,0,172.924,170.667Z" transform="translate(-164.649 -167.282)"/>
        <path id="Path_281" data-name="Path 281" d="M8.275,74.667A8.9,8.9,0,0,0,0,80.309a8.889,8.889,0,0,0,16.55,0A8.893,8.893,0,0,0,8.275,74.667Zm0,9.4a3.761,3.761,0,1,1,3.761-3.761A3.763,3.763,0,0,1,8.275,84.07Z" transform="translate(0 -74.667)"/>
      </g>
    </g>
  </g>
</svg>
